…
missing_city = pull(city_total, city_state)[!pull(city_total, city_state) %in% pull(city_unsolve, city_state)]

city_unsolve = rbind(city_unsolve, c(missing_city, 0)) %>%
  mutate(unsolved_h = as.numeric(unsolved_h))

city_prop = full_join(city_unsolve, city_total)
```

    ## Joining, by = "city_state"

``` r
city_prop
```

    ## # A tibble: 51 × 3
    ##    city_state      unsolved_h total_h
    ##    <chr>                <dbl>   <dbl>
    ##  1 Albuquerque, NM        146     378
    ##  2 Atlanta, GA            373     973
    ##  3 Baltimore, MD         1825    2827
    ##  4 Baton Rouge, LA        196     424
    ##  5 Birmingham, AL         347     800
    ##  6 Boston, MA             310     614
    ##  7 Buffalo, NY            319     521
    ##  8 Charlotte, NC          206     687
    ##  9 Chicago, IL           4073    5535
    ## 10 Cincinnati, OH         309     694
    ## # … with 41 more rows
…
``` r
city_test =
  city_prop %>%
  mutate(ptest = map2(.x = unsolved_h, .y = total_h, ~prop.test(x = .x, n = .y))) %>%
  mutate(ptest = map(ptest, broom::tidy)) %>%
  mutate(ptest = map(ptest, ~select(., estimate, conf.low, conf.high))) %>%
  unnest(ptest) %>%
  select(-unsolved_h, -total_h)
city_test
```

    ## # A tibble: 51 × 4
    ##    city_state      estimate conf.low conf.high
    ##    <chr>              <dbl>    <dbl>     <dbl>
    ##  1 Albuquerque, NM    0.386    0.337     0.438
    ##  2 Atlanta, GA        0.383    0.353     0.415
    ##  3 Baltimore, MD      0.646    0.628     0.663
    ##  4 Baton Rouge, LA    0.462    0.414     0.511
    ##  5 Birmingham, AL     0.434    0.399     0.469
    ##  6 Boston, MA         0.505    0.465     0.545
    ##  7 Buffalo, NY        0.612    0.569     0.654
    ##  8 Charlotte, NC      0.300    0.266     0.336
    ##  9 Chicago, IL        0.736    0.724     0.747
    ## 10 Cincinnati, OH     0.445    0.408     0.483
    ## # … with 41 more rows
…
